{
  "files": {
    "main.css": "/static/css/main.d3b1e210.chunk.css",
    "main.js": "/static/js/main.1b033538.chunk.js",
    "main.js.map": "/static/js/main.1b033538.chunk.js.map",
    "runtime-main.js": "/static/js/runtime-main.a5c617cf.js",
    "runtime-main.js.map": "/static/js/runtime-main.a5c617cf.js.map",
    "static/css/2.f87e9f44.chunk.css": "/static/css/2.f87e9f44.chunk.css",
    "static/js/2.828d249f.chunk.js": "/static/js/2.828d249f.chunk.js",
    "static/js/2.828d249f.chunk.js.map": "/static/js/2.828d249f.chunk.js.map",
    "index.html": "/index.html",
    "precache-manifest.48abe8a99f7c7be4cd27334f4313966c.js": "/precache-manifest.48abe8a99f7c7be4cd27334f4313966c.js",
    "service-worker.js": "/service-worker.js",
    "static/css/2.f87e9f44.chunk.css.map": "/static/css/2.f87e9f44.chunk.css.map",
    "static/css/main.d3b1e210.chunk.css.map": "/static/css/main.d3b1e210.chunk.css.map",
    "static/js/2.828d249f.chunk.js.LICENSE.txt": "/static/js/2.828d249f.chunk.js.LICENSE.txt",
    "static/media/alert.wav": "/static/media/alert.07f2718d.wav",
    "static/media/health-icons-orgainic-icon.png": "/static/media/health-icons-orgainic-icon.fd497ac3.png",
    "static/media/money.png": "/static/media/money.bb4a5fcf.png"
  },
  "entrypoints": [
    "static/js/runtime-main.a5c617cf.js",
    "static/css/2.f87e9f44.chunk.css",
    "static/js/2.828d249f.chunk.js",
    "static/css/main.d3b1e210.chunk.css",
    "static/js/main.1b033538.chunk.js"
  ]
}